<?xml version="1.0" encoding="UTF-8" standalone="no"?>
<svg
   xmlns:dc="http://purl.org/dc/elements/1.1/"
   xmlns:cc="http://creativecommons.org/ns#"
   xmlns:rdf="http://www.w3.org/1999/02/22-rdf-syntax-ns#"
   xmlns:svg="http://www.w3.org/2000/svg"
   xmlns="http://www.w3.org/2000/svg"
   xmlns:sodipodi="http://sodipodi.sourceforge.net/DTD/sodipodi-0.dtd"
   xmlns:inkscape="http://www.inkscape.org/namespaces/inkscape"
   width="484.58936"
   height="311.85587"
   version="1.1"
   id="svg4911"
   sodipodi:docname="graph.svg"
   inkscape:version="0.92.1 r15371">
  <metadata
     id="metadata4915">
    <rdf:RDF>
      <cc:Work
         rdf:about="">
        <dc:format>image/svg+xml</dc:format>
        <dc:type
           rdf:resource="http://purl.org/dc/dcmitype/StillImage" />
        <dc:title>Untitled graph</dc:title>
      </cc:Work>
    </rdf:RDF>
  </metadata>
  <sodipodi:namedview
     pagecolor="#ffffff"
     bordercolor="#666666"
     borderopacity="1"
     objecttolerance="10"
     gridtolerance="10"
     guidetolerance="10"
     inkscape:pageopacity="0"
     inkscape:pageshadow="2"
     inkscape:window-width="1920"
     inkscape:window-height="1015"
     id="namedview4913"
     showgrid="false"
     inkscape:zoom="1.3029223"
     inkscape:cx="329.27536"
     inkscape:cy="154.00997"
     inkscape:window-x="0"
     inkscape:window-y="0"
     inkscape:window-maximized="1"
     inkscape:current-layer="svg4911"
     fit-margin-top="0"
     fit-margin-left="0"
     fit-margin-right="0"
     fit-margin-bottom="0" />
  <!-- Generated at Mon Aug  7 11:33:42 2017 by:
  Graph::Easy v0.26
  Graph::Easy::As_svg v0.26
-->
  <title
     id="title4728">Untitled graph</title>
  <defs
     id="defs4737">
    <!-- open arrow -->
    <g
       id="ah"
       style="stroke-width:1;stroke-linecap:round">
      <line
         x1="-8"
         y1="-4"
         x2="1"
         y2="0"
         id="line4730" />
      <line
         x1="1"
         y1="0"
         x2="-8"
         y2="4"
         id="line4732" />
    </g>
    <!-- class definitions -->
    <style
       type="text/css"
       id="style4735"><![CDATA[
 .edge {
  font-size: 13px;
  stroke: black;
  text-align: center;
 }
 .graph {
  font-size: 16px;
  text-align: center;
 }
 .node {
  font-size: 16px;
  text-align: center;
 }
 ]]></style>
  </defs>
  <!-- graph background with border (mainly for printing) -->
  <g
     id="g5526"
     transform="translate(-33.448788,-85.544425)">
    <g
       style="font-size:16px;text-align:center"
       transform="translate(-0.38976413,47.684074)"
       class="node"
       id="0">
      <!-- SecretSanta, rect -->
      <rect
         style="fill:#ffffff;stroke:#000000;stroke-width:0.73324442"
         id="rect4856"
         y="152.77751"
         x="166.89999"
         width="121"
         height="82.044983" />
      <text
         id="text4858"
         style="font-style:normal;font-variant:normal;font-weight:normal;font-stretch:normal;font-family:Iosevka;-inkscape-font-specification:Iosevka;text-anchor:middle;fill:#000000"
         y="199"
         x="227">SecretSanta</text>
    </g>
    <g
       style="font-size:16px;text-align:center"
       transform="translate(-325.3512,-52.070883)"
       class="node"
       id="1">
      <!-- Participant, rect -->
      <rect
         ry="5"
         rx="5"
         style="fill:#e6e6e6;stroke:#000000"
         id="rect4861"
         y="226.3"
         x="359.29999"
         width="107"
         height="43.799999" />
      <text
         id="text4863"
         style="font-style:normal;font-variant:normal;font-weight:normal;font-stretch:normal;font-family:Iosevka;-inkscape-font-specification:Iosevka;text-anchor:middle;fill:#000000"
         y="254"
         x="412">Participant</text>
    </g>
    <g
       style="font-size:16px;text-align:center"
       transform="translate(-484.7512,38.639034)"
       class="node"
       id="3">
      <!-- Group, rect -->
      <rect
         style="fill:#ffffff;stroke:#000000"
         id="rect4866"
         y="226.3"
         x="537.70001"
         width="69"
         height="43.799999" />
      <text
         id="text4868"
         style="font-style:normal;font-variant:normal;font-weight:normal;font-stretch:normal;font-family:Iosevka;-inkscape-font-specification:Iosevka;text-anchor:middle;fill:#000000"
         y="254"
         x="572">Group</text>
    </g>
    <path
       inkscape:connection-start="#1"
       inkscape:connection-end="#0"
       inkscape:connector-curvature="0"
       inkscape:connector-type="polyline"
       id="path5045"
       d="m 140.92633,213.50836 25.5839,8.31431"
       style="fill:none;fill-rule:evenodd;stroke:#000000;stroke-width:1px;stroke-linecap:butt;stroke-linejoin:miter;stroke-opacity:1" />
    <g
       style="font-size:16px;text-align:center"
       transform="translate(310.07163,102.08409)"
       class="node"
       id="9">
      <!-- Sorter, rect -->
      <rect
         rx="5"
         ry="5"
         style="fill:#e6e6e6;stroke:#000000;stroke-width:0.93248308"
         id="rect4881"
         y="117.5"
         x="22.588535"
         width="67.822929"
         height="43.799999" />
      <text
         id="text4883"
         style="font-style:normal;font-variant:normal;font-weight:normal;font-stretch:normal;font-family:Iosevka;-inkscape-font-specification:Iosevka;text-anchor:middle;fill:#000000"
         y="145"
         x="56">Sorter</text>
    </g>
    <g
       style="font-size:16px;text-align:center"
       transform="translate(-46.22835,0.47651398)"
       class="node"
       id="5">
      <!-- Dispatcher, rect -->
      <rect
         ry="5"
         rx="5"
         style="fill:#e6e6e6;stroke:#000000;stroke-width:0.97342438"
         id="rect4871"
         y="117.5"
         x="362.1058"
         width="101.38838"
         height="43.799999" />
      <text
         id="text4873"
         style="font-style:normal;font-variant:normal;font-weight:normal;font-stretch:normal;font-family:Iosevka;-inkscape-font-specification:Iosevka;text-anchor:middle;fill:#000000"
         y="145"
         x="412">Dispatcher</text>
    </g>
    <g
       style="font-size:16px;text-align:center"
       transform="translate(139.17164,-13.908359)"
       class="node"
       id="7">
      <!-- Renderer, rect -->
      <rect
         rx="5"
         ry="5"
         style="fill:#e6e6e6;stroke:#000000;stroke-width:0.8602218"
         id="rect4876"
         y="335.10001"
         x="182.6311"
         width="89.537766"
         height="43.799999" />
      <text
         id="text4878"
         style="font-style:normal;font-variant:normal;font-weight:normal;font-stretch:normal;font-family:Iosevka;-inkscape-font-specification:Iosevka;text-anchor:middle;fill:#000000"
         y="363"
         x="227">Renderer</text>
    </g>
    <path
       inkscape:connection-start="#7"
       inkscape:connection-end="#0"
       inkscape:connector-curvature="0"
       inkscape:connector-type="polyline"
       id="path5055"
       d="M 336.49124,321.19165 283.35599,282.50657"
       style="fill:none;fill-rule:evenodd;stroke:#000000;stroke-width:1px;stroke-linecap:butt;stroke-linejoin:miter;stroke-opacity:1" />
    <g
       style="font-size:16px;text-align:center"
       transform="translate(422.03815,-6.715911)"
       class="node"
       id="11">
      <!-- Shuffle, rect -->
      <rect
         style="fill:#ffffff;stroke:#000000"
         id="rect4886"
         y="226.3"
         x="17.5"
         width="78"
         height="43.799999" />
      <text
         id="text4888"
         style="font-style:normal;font-variant:normal;font-weight:normal;font-stretch:normal;font-family:Iosevka;-inkscape-font-specification:Iosevka;text-anchor:middle;fill:#000000"
         y="254"
         x="56">Shuffle</text>
    </g>
    <g
       style="font-size:16px;text-align:center"
       transform="translate(-93.661864,33.065724)"
       class="node"
       id="17">
      <!-- Email, rect -->
      <rect
         style="fill:#ffffff;stroke:#000000"
         id="rect4901"
         y="117.5"
         x="537.70001"
         width="69"
         height="43.799999" />
      <text
         id="text4903"
         style="font-style:normal;font-variant:normal;font-weight:normal;font-stretch:normal;font-family:Iosevka;-inkscape-font-specification:Iosevka;text-anchor:middle;fill:#000000"
         y="145"
         x="572">Email</text>
    </g>
    <g
       style="font-size:16px;text-align:center"
       transform="translate(65.738158,68.447344)"
       class="node"
       id="19">
      <!-- Handle, rect -->
      <rect
         style="fill:#ffffff;stroke:#000000;stroke-width:0.80583894"
         id="rect4906"
         y="17.5"
         x="378.05835"
         width="69.483276"
         height="35" />
      <text
         id="text4908"
         style="font-style:normal;font-variant:normal;font-weight:normal;font-stretch:normal;font-family:Iosevka;-inkscape-font-specification:Iosevka;text-anchor:middle;fill:#000000"
         y="41"
         x="412">Handle</text>
    </g>
    <g
       style="font-size:16px;text-align:center"
       transform="translate(65.738148,-46.497554)"
       class="node"
       id="13">
      <!-- Mason, rect -->
      <rect
         style="fill:#ffffff;stroke:#000000;stroke-width:0.80728388"
         id="rect4891"
         y="335.10001"
         x="377.93365"
         width="69.732681"
         height="43.799999" />
      <text
         id="text4893"
         style="font-style:normal;font-variant:normal;font-weight:normal;font-stretch:normal;font-family:Iosevka;-inkscape-font-specification:Iosevka;text-anchor:middle;fill:#000000"
         y="363"
         x="412">Mason</text>
    </g>
    <g
       style="font-size:16px;text-align:center"
       transform="translate(292.07194,-81.879177)"
       class="node"
       id="15">
      <!-- String, rect -->
      <rect
         style="fill:#ffffff;stroke:#000000;stroke-width:0.7589758"
         id="rect4896"
         y="443.89999"
         x="151.61552"
         width="69.701355"
         height="35" />
      <text
         id="text4898"
         style="font-style:normal;font-variant:normal;font-weight:normal;font-stretch:normal;font-family:Iosevka;-inkscape-font-specification:Iosevka;text-anchor:middle;fill:#000000"
         y="467"
         x="186.3222">String</text>
    </g>
    <path
       inkscape:connection-end="#3"
       inkscape:connection-start="#0"
       inkscape:connector-curvature="0"
       inkscape:connector-type="polyline"
       id="path5416"
       d="m 166.51023,261.14549 -44.56142,14.48166"
       style="fill:none;fill-rule:evenodd;stroke:#000000;stroke-width:1px;stroke-linecap:butt;stroke-linejoin:miter;stroke-opacity:1" />
    <path
       inkscape:connection-end="#5"
       inkscape:connection-start="#0"
       inkscape:connector-curvature="0"
       inkscape:connector-type="polyline"
       id="path5418"
       d="m 283.35601,200.46159 53.13525,-38.68508"
       style="fill:none;fill-rule:evenodd;stroke:#000000;stroke-width:1px;stroke-linecap:butt;stroke-linejoin:miter;stroke-opacity:1" />
    <path
       inkscape:connection-end="#9"
       inkscape:connection-start="#0"
       inkscape:connector-curvature="0"
       inkscape:connector-type="polyline"
       id="path5420"
       d="m 287.51023,241.48408 45.14994,1e-5"
       style="fill:none;fill-rule:evenodd;stroke:#000000;stroke-width:1px;stroke-linecap:butt;stroke-linejoin:miter;stroke-opacity:1" />
    <path
       inkscape:connection-end="#17"
       inkscape:connection-start="#5"
       inkscape:connector-curvature="0"
       inkscape:connector-type="polyline"
       id="path5424"
       d="m 417.26584,154.63167 26.77231,7.79241"
       style="fill:none;fill-rule:evenodd;stroke:#000000;stroke-width:1px;stroke-linecap:butt;stroke-linejoin:miter;stroke-opacity:1" />
    <path
       inkscape:connection-end="#9"
       inkscape:connection-start="#11"
       inkscape:connector-curvature="0"
       inkscape:connector-type="polyline"
       id="path5426"
       d="m 439.53815,241.48409 -39.05506,0"
       style="fill:none;fill-rule:evenodd;stroke:#000000;stroke-width:1px;stroke-linecap:butt;stroke-linejoin:miter;stroke-opacity:1" />
    <path
       inkscape:connection-end="#13"
       inkscape:connection-start="#7"
       inkscape:connector-curvature="0"
       inkscape:connector-type="polyline"
       id="path5428"
       d="m 411.34051,330.06113 32.33129,-9.41041"
       style="fill:none;fill-rule:evenodd;stroke:#000000;stroke-width:1px;stroke-linecap:butt;stroke-linejoin:miter;stroke-opacity:1" />
    <path
       inkscape:connection-end="#19"
       inkscape:connection-start="#5"
       inkscape:connector-curvature="0"
       inkscape:connector-type="polyline"
       id="path5433"
       d="m 417.26584,123.38277 26.53067,-8.63196"
       style="fill:none;fill-rule:evenodd;stroke:#000000;stroke-width:1px;stroke-linecap:butt;stroke-linejoin:miter;stroke-opacity:1" />
    <path
       inkscape:connection-end="#15"
       inkscape:connection-start="#7"
       inkscape:connector-curvature="0"
       inkscape:connector-type="polyline"
       id="path5435"
       d="m 411.34051,357.65755 32.34695,10.52433"
       style="fill:none;fill-rule:evenodd;stroke:#000000;stroke-width:1px;stroke-linecap:butt;stroke-linejoin:miter;stroke-opacity:1" />
    <path
       inkscape:connection-end="#1"
       inkscape:connection-start="#3"
       inkscape:connector-curvature="0"
       inkscape:connector-type="polyline"
       id="path5462"
       d="m 87.448806,264.93904 -1.2e-5,-46.90992"
       style="fill:none;fill-rule:evenodd;stroke:#000000;stroke-width:1px;stroke-linecap:butt;stroke-linejoin:miter;stroke-opacity:1" />
  </g>
</svg>
